{
  "_fv": 5,
  "_type": "achievement",
  "definition": {
    "achievementName": "Become a wizard",
    "achievementDescription": "become a wizard",
    "achievementIcon": {
      "value": "CUSTOM:Bullet2"
    },
    "background": "Default",
    "disableDisplay": false,
    "showPopup": true,
    "announceToChat": true,
    "hideIfNotCompleted": false,
    "rewardLoot": [],
    "rewardFunction": "No function",
    "rewardXP": 10,
    "achievementType": "goal",
    "parent": {
      "value": "No parent: root"
    },
    "triggerxml": "<xml xmlns=\"https://developers.google.com/blockly/xml\"><block type=\"custom_trigger\" x=\"13\" y=\"89\"><next><block type=\"advancement_trigger\" deletable=\"false\"/></next></block></xml>"
  }
}